%YAML 1.1
%TAG !u! tag:unity3d.com,2011:
--- !u!1045 &1
EditorBuildSettings:
  m_ObjectHideFlags: 0
  serializedVersion: 2
  m_Scenes:
  - enabled: 1
    path: Assets/Scenes/Room1.unity
    guid: 87ab18d00523d6241b9db6d9577ad346
  - enabled: 1
    path: Assets/Scenes/Hall1.unity
    guid: 459a57d85983c45bab713ebc1bdcab84
